

update rate set EffectiveEndDate='2016-04-30' from Rate  
where ClaimType=1 and EffectiveEndDate='9999-12-31 00:00:00.000'  and ItemID!=48;
						 

INSERT INTO "Rate" ("ItemID", "ClaimType", "ItemRate", "EffectiveStartDate", "EffectiveEndDate") VALUES (47, 1, 3.55, '2016-05-01', '9999-12-31');
INSERT INTO "Rate" ("ItemID", "ClaimType", "ItemRate", "EffectiveStartDate", "EffectiveEndDate") VALUES (49, 1, 5.55, '2016-05-01', '9999-12-31');
INSERT INTO "Rate" ("ItemID", "ClaimType", "ItemRate", "EffectiveStartDate", "EffectiveEndDate") VALUES (50, 1, 11.10, '2016-05-01', '9999-12-31');
INSERT INTO "Rate" ("ItemID", "ClaimType", "ItemRate", "EffectiveStartDate", "EffectiveEndDate") VALUES (51, 1, 27.76, '2016-05-01', '9999-12-31');
INSERT INTO "Rate" ("ItemID", "ClaimType", "ItemRate", "EffectiveStartDate", "EffectiveEndDate") VALUES (52, 1, 44.41, '2016-05-01', '9999-12-31');
INSERT INTO "Rate" ("ItemID", "ClaimType", "ItemRate", "EffectiveStartDate", "EffectiveEndDate") VALUES (53, 1, 111.03, '2016-05-01', '9999-12-31');
INSERT INTO "Rate" ("ItemID", "ClaimType", "ItemRate", "EffectiveStartDate", "EffectiveEndDate") VALUES (54, 1, 172.10, '2016-05-01', '9999-12-31');
INSERT INTO "Rate" ("ItemID", "ClaimType", "ItemRate", "EffectiveStartDate", "EffectiveEndDate") VALUES (55, 1, 333.09, '2016-05-01', '9999-12-31');
INSERT INTO "Rate" ("ItemID", "ClaimType", "ItemRate", "EffectiveStartDate", "EffectiveEndDate") VALUES (56, 1, 516.29, '2016-05-01', '9999-12-31');
INSERT INTO "Rate" ("ItemID", "ClaimType", "ItemRate", "EffectiveStartDate", "EffectiveEndDate") VALUES (57, 1, 1237.98, '2016-05-01', '9999-12-31');
INSERT INTO "Rate" ("ItemID", "ClaimType", "ItemRate", "EffectiveStartDate", "EffectiveEndDate") VALUES (58, 1, 11.10, '2016-05-01', '9999-12-31');
INSERT INTO "Rate" ("ItemID", "ClaimType", "ItemRate", "EffectiveStartDate", "EffectiveEndDate") VALUES (59, 1, 22.21, '2016-05-01', '9999-12-31');
INSERT INTO "Rate" ("ItemID", "ClaimType", "ItemRate", "EffectiveStartDate", "EffectiveEndDate") VALUES (60, 1, 55.51, '2016-05-01', '9999-12-31');
INSERT INTO "Rate" ("ItemID", "ClaimType", "ItemRate", "EffectiveStartDate", "EffectiveEndDate") VALUES (61, 1, 172.10, '2016-05-01', '9999-12-31');
INSERT INTO "Rate" ("ItemID", "ClaimType", "ItemRate", "EffectiveStartDate", "EffectiveEndDate") VALUES (62, 1, 333.09, '2016-05-01', '9999-12-31');
INSERT INTO "Rate" ("ItemID", "ClaimType", "ItemRate", "EffectiveStartDate", "EffectiveEndDate") VALUES (63, 1, 516.29, '2016-05-01', '9999-12-31');
INSERT INTO "Rate" ("ItemID", "ClaimType", "ItemRate", "EffectiveStartDate", "EffectiveEndDate") VALUES (64, 1, 1237.98, '2016-05-01', '9999-12-31');

